{
  "queue_manager":{
    "dir_path" : "/home/thisara/Desktop/generalized_machine_learning_architecture/images/input_images",
    "result_save_path": "/home/thisara/Desktop/generalized_machine_learning_architecture/images/result_images",
    "processed_image_path" : "/home/thisara/Desktop/generalized_machine_learning_architecture/images/processed_images",
    "meta_data_dir" : "/home/thisara/Desktop/generalized_machine_learning_architecture/images/meta_files/meta_data.json",
    "data_type" : "image"
  },

  "detector":{
    "model_path" : "/home/thisara/Desktop/generalized_machine_learning_architecture/models/yolo/yolo-coco",
    "threshold": 0.4,
    "confidence": 0.3,
    "classes_list": [0],
    "framework" : "yolo"
  }
}